Multiplier/dump.vcd
$date
	Tue Nov 29 11:12:50 2022
$end
$version
	Icarus Verilog
$end
$timescale
	100ps
$end
$scope module tb $end
$var wire 1 ! ADD_cmd $end
$var wire 16 " RC [15:0] $end
$var wire 1 # STOP $end
$var wire 1 $ SHIFT_cmd $end
$var wire 1 % LOAD_cmd $end
$var wire 1 & COUNT $end
$var reg 8 ' A_in [7:0] $end
$var reg 8 ( B_in [7:0] $end
$var reg 1 ) DONE $end
$var reg 1 * LSB $end
$var reg 1 + START $end
$var reg 1 , clk $end
$var reg 1 - reset $end
$scope module test1 $end
$var wire 1 ! ADD_cmd $end
$var wire 1 & COUNT $end
$var wire 1 ) DONE $end
$var wire 1 % LOAD_cmd $end
$var wire 1 * LSB $end
$var wire 1 $ SHIFT_cmd $end
$var wire 1 + START $end
$var wire 1 # STOP $end
$var wire 1 . a_next $end
$var wire 1 / an $end
$var wire 1 0 b_next $end
$var wire 1 1 bn $end
$var wire 1 2 c_next $end
$var wire 1 , clk $end
$var wire 1 3 cn $end
$var wire 1 4 d $end
$var wire 1 5 dn $end
$var wire 1 6 ln $end
$var wire 1 - reset $end
$var wire 1 7 rn $end
$var wire 1 8 sn $end
$var wire 2 9 c_sop [1:0] $end
$var wire 1 : c $end
$var wire 3 ; b_sop [2:0] $end
$var wire 1 < b $end
$var wire 3 = a_sop [2:0] $end
$var wire 1 > a $end
$scope module da $end
$var wire 1 , clk $end
$var wire 1 . in $end
$var wire 1 - reset $end
$var wire 1 ? reset_ $end
$var wire 1 > out $end
$var wire 1 @ df_in $end
$scope module and2_0 $end
$var wire 1 . i0 $end
$var wire 1 @ o $end
$var wire 1 ? i1 $end
$upscope $end
$scope module df_0 $end
$var wire 1 , clk $end
$var wire 1 @ in $end
$var wire 1 > out $end
$var reg 1 > df_out $end
$upscope $end
$scope module invert_0 $end
$var wire 1 - i $end
$var wire 1 ? o $end
$upscope $end
$upscope $end
$scope module db $end
$var wire 1 , clk $end
$var wire 1 0 in $end
$var wire 1 - reset $end
$var wire 1 A reset_ $end
$var wire 1 < out $end
$var wire 1 B df_in $end
$scope module and2_0 $end
$var wire 1 0 i0 $end
$var wire 1 B o $end
$var wire 1 A i1 $end
$upscope $end
$scope module df_0 $end
$var wire 1 , clk $end
$var wire 1 B in $end
$var wire 1 < out $end
$var reg 1 < df_out $end
$upscope $end
$scope module invert_0 $end
$var wire 1 - i $end
$var wire 1 A o $end
$upscope $end
$upscope $end
$scope module dc $end
$var wire 1 , clk $end
$var wire 1 2 in $end
$var wire 1 - reset $end
$var wire 1 C reset_ $end
$var wire 1 : out $end
$var wire 1 D df_in $end
$scope module and2_0 $end
$var wire 1 2 i0 $end
$var wire 1 D o $end
$var wire 1 C i1 $end
$upscope $end
$scope module df_0 $end
$var wire 1 , clk $end
$var wire 1 D in $end
$var wire 1 : out $end
$var reg 1 : df_out $end
$upscope $end
$scope module invert_0 $end
$var wire 1 - i $end
$var wire 1 C o $end
$upscope $end
$upscope $end
$upscope $end
$upscope $end
$enddefinitions $end
$comment Show the parameter values. $end
$dumpall
$end
#0
$dumpvars
0D
0C
0B
0A
0@
0?
x>
bx =
x<
bx ;
x:
bx 9
x8
07
x6
x5
z4
x3
x2
x1
x0
x/
x.
1-
0,
x+
x*
x)
bx (
bx '
x&
x%
x$
0#
bz "
z!
$end
#50
02
00
0&
0$
1/
bx00 =
11
0%
b0 9
b0 ;
13
0>
0<
0:
1,
#100
0,
#125
1#
17
x@
1?
1A
1C
0-
#150
xB
x0
x#
x&
x$
b0x0 ;
x/
x>
1,
#200
0,
#250
xD
x2
b0x 9
bx0 ;
bx =
x1
x<
1,
#300
0,
#350
x%
bx 9
bx ;
x3
x:
1,
#400
0,
#450
1,
#500
0,
#550
1,
#600
0,
#650
1,
#700
0,
#750
1,
#800
0,
#850
1,
#900
0,
#950
1,
#1000
08
0,
1+
#1050
1,
#1100
18
0,
0+
#1150
1,
#1200
0,
#1250
1,
#1300
0,
#1350
1,
#1400
0,
#1450
1,
#1500
0,
#1550
1,
#1600
0,
#1650
1,
#1700
0,
#1750
1,
#1800
0,
#1850
1,
#1900
0,
#1950
1,
#2000
0,
#2050
1,
#2100
bx0 9
06
0,
1*
#2150
1,
#2200
bx 9
16
bx00 =
b0xx ;
0,
0*
